%!PS-Adobe-2.0 EPSF-1.2
%%Creator: MATLAB, The Mathworks, Inc. Version 7.3.0.298 (R2006b). Operating System: Linux 2.6.20-roe-686 #1 SMP Thu Jun 14 17:44:06 BST 2007 i686.
%%Title: ./absorbed_spectrum.eps
%%CreationDate: 03/28/2008  19:57:01
%%DocumentNeededFonts: Helvetica
%%DocumentProcessColors: Cyan Magenta Yellow Black
%%Pages: 1
%%BoundingBox:    22    17   357   297
%%EndComments

%%BeginProlog
% MathWorks dictionary
/MathWorks 160 dict begin
% definition operators
/bdef {bind def} bind def
/ldef {load def} bind def
/xdef {exch def} bdef
/xstore {exch store} bdef
% operator abbreviations
/c  /clip ldef
/cc /concat ldef
/cp /closepath ldef
/gr /grestore ldef
/gs /gsave ldef
/mt /moveto ldef
/np /newpath ldef
/cm /currentmatrix ldef
/sm /setmatrix ldef
/rm /rmoveto ldef
/rl /rlineto ldef
/s {show newpath} bdef
/sc {setcmykcolor} bdef
/sr /setrgbcolor ldef
/sg /setgray ldef
/w /setlinewidth ldef
/j /setlinejoin ldef
/cap /setlinecap ldef
/rc {rectclip} bdef
/rf {rectfill} bdef
% page state control
/pgsv () def
/bpage {/pgsv save def} bdef
/epage {pgsv restore} bdef
/bplot /gsave ldef
/eplot {stroke grestore} bdef
% orientation switch
/portraitMode 0 def /landscapeMode 1 def /rotateMode 2 def
% coordinate system mappings
/dpi2point 0 def
% font control
/FontSize 0 def
/FMS {/FontSize xstore findfont [FontSize 0 0 FontSize neg 0 0]
  makefont setfont} bdef
/reencode {exch dup where {pop load} {pop StandardEncoding} ifelse
  exch dup 3 1 roll findfont dup length dict begin
  { 1 index /FID ne {def}{pop pop} ifelse } forall
  /Encoding exch def currentdict end definefont pop} bdef
/isroman {findfont /CharStrings get /Agrave known} bdef
/FMSR {3 1 roll 1 index dup isroman {reencode} {pop pop} ifelse
  exch FMS} bdef
/csm {1 dpi2point div -1 dpi2point div scale neg translate
 dup landscapeMode eq {pop -90 rotate}
  {rotateMode eq {90 rotate} if} ifelse} bdef
% line types: solid, dotted, dashed, dotdash
/SO { [] 0 setdash } bdef
/DO { [.5 dpi2point mul 4 dpi2point mul] 0 setdash } bdef
/DA { [6 dpi2point mul] 0 setdash } bdef
/DD { [.5 dpi2point mul 4 dpi2point mul 6 dpi2point mul 4
  dpi2point mul] 0 setdash } bdef
% macros for lines and objects
/L {lineto stroke} bdef
/MP {3 1 roll moveto 1 sub {rlineto} repeat} bdef
/AP {{rlineto} repeat} bdef
/PDlw -1 def
/W {/PDlw currentlinewidth def setlinewidth} def
/PP {closepath eofill} bdef
/DP {closepath stroke} bdef
/MR {4 -2 roll moveto dup  0 exch rlineto exch 0 rlineto
  neg 0 exch rlineto closepath} bdef
/FR {MR stroke} bdef
/PR {MR fill} bdef
/L1i {{currentfile picstr readhexstring pop} image} bdef
/tMatrix matrix def
/MakeOval {newpath tMatrix currentmatrix pop translate scale
0 0 1 0 360 arc tMatrix setmatrix} bdef
/FO {MakeOval stroke} bdef
/PO {MakeOval fill} bdef
/PD {currentlinewidth 2 div 0 360 arc fill
   PDlw -1 eq not {PDlw w /PDlw -1 def} if} def
/FA {newpath tMatrix currentmatrix pop translate scale
  0 0 1 5 -2 roll arc tMatrix setmatrix stroke} bdef
/PA {newpath tMatrix currentmatrix pop	translate 0 0 moveto scale
  0 0 1 5 -2 roll arc closepath tMatrix setmatrix fill} bdef
/FAn {newpath tMatrix currentmatrix pop translate scale
  0 0 1 5 -2 roll arcn tMatrix setmatrix stroke} bdef
/PAn {newpath tMatrix currentmatrix pop translate 0 0 moveto scale
  0 0 1 5 -2 roll arcn closepath tMatrix setmatrix fill} bdef
/vradius 0 def /hradius 0 def /lry 0 def
/lrx 0 def /uly 0 def /ulx 0 def /rad 0 def
/MRR {/vradius xdef /hradius xdef /lry xdef /lrx xdef /uly xdef
  /ulx xdef newpath tMatrix currentmatrix pop ulx hradius add uly
  vradius add translate hradius vradius scale 0 0 1 180 270 arc 
  tMatrix setmatrix lrx hradius sub uly vradius add translate
  hradius vradius scale 0 0 1 270 360 arc tMatrix setmatrix
  lrx hradius sub lry vradius sub translate hradius vradius scale
  0 0 1 0 90 arc tMatrix setmatrix ulx hradius add lry vradius sub
  translate hradius vradius scale 0 0 1 90 180 arc tMatrix setmatrix
  closepath} bdef
/FRR {MRR stroke } bdef
/PRR {MRR fill } bdef
/MlrRR {/lry xdef /lrx xdef /uly xdef /ulx xdef /rad lry uly sub 2 div def
  newpath tMatrix currentmatrix pop ulx rad add uly rad add translate
  rad rad scale 0 0 1 90 270 arc tMatrix setmatrix lrx rad sub lry rad
  sub translate rad rad scale 0 0 1 270 90 arc tMatrix setmatrix
  closepath} bdef
/FlrRR {MlrRR stroke } bdef
/PlrRR {MlrRR fill } bdef
/MtbRR {/lry xdef /lrx xdef /uly xdef /ulx xdef /rad lrx ulx sub 2 div def
  newpath tMatrix currentmatrix pop ulx rad add uly rad add translate
  rad rad scale 0 0 1 180 360 arc tMatrix setmatrix lrx rad sub lry rad
  sub translate rad rad scale 0 0 1 0 180 arc tMatrix setmatrix
  closepath} bdef
/FtbRR {MtbRR stroke } bdef
/PtbRR {MtbRR fill } bdef
/stri 6 array def /dtri 6 array def
/smat 6 array def /dmat 6 array def
/tmat1 6 array def /tmat2 6 array def /dif 3 array def
/asub {/ind2 exch def /ind1 exch def dup dup
  ind1 get exch ind2 get sub exch } bdef
/tri_to_matrix {
  2 0 asub 3 1 asub 4 0 asub 5 1 asub
  dup 0 get exch 1 get 7 -1 roll astore } bdef
/compute_transform {
  dmat dtri tri_to_matrix tmat1 invertmatrix 
  smat stri tri_to_matrix tmat2 concatmatrix } bdef
/ds {stri astore pop} bdef
/dt {dtri astore pop} bdef
/db {2 copy /cols xdef /rows xdef mul dup string
  currentfile exch readhexstring pop
  /bmap xdef pop pop} bdef
/it {gs np dtri aload pop moveto lineto lineto cp c
  cols rows 8 compute_transform 
  {bmap} image gr}bdef
/il {newpath moveto lineto stroke}bdef
currentdict end def
%%EndProlog

%%BeginSetup
MathWorks begin

0 cap

end
%%EndSetup

%%Page: 1 1
%%BeginPageSetup
%%PageBoundingBox:    22    17   357   297
MathWorks begin
bpage
%%EndPageSetup

%%BeginObject: obj1
bplot

/dpi2point 12 def
portraitMode 0216 3672 csm

   57   107  4013  3350 MR c np
125 dict begin %Colortable dictionary
/c0 { 0.000000 0.000000 0.000000 sr} bdef
/c1 { 1.000000 1.000000 1.000000 sr} bdef
/c2 { 0.900000 0.000000 0.000000 sr} bdef
/c3 { 0.000000 0.820000 0.000000 sr} bdef
/c4 { 0.000000 0.000000 0.800000 sr} bdef
/c5 { 0.910000 0.820000 0.320000 sr} bdef
/c6 { 1.000000 0.260000 0.820000 sr} bdef
/c7 { 0.000000 0.820000 0.820000 sr} bdef
c0
1 j
1 sg
   0    0 4321 3458 PR
6 w
0 2818 3348 0 0 -2818 562 3077 4 MP
PP
-3348 0 0 2818 3348 0 0 -2818 562 3077 5 MP stroke
4 w
DO
SO
6 w
0 sg
 562 3077 mt 3910 3077 L
 562  259 mt 3910  259 L
 562 3077 mt  562  259 L
3910 3077 mt 3910  259 L
 562 3077 mt 3910 3077 L
 562 3077 mt  562  259 L
 562 3077 mt  562 3060 L
 562  259 mt  562  275 L
 562 3077 mt  562 3043 L
 562  259 mt  562  292 L
%%IncludeResource: font Helvetica
/Helvetica /ISOLatin1Encoding 120 FMSR

 452 3259 mt 
(10) s
%%IncludeResource: font Helvetica
/Helvetica /ISOLatin1Encoding 80 FMSR

 585 3185 mt 
(15) s
1065 3077 mt 1065 3060 L
1065  259 mt 1065  275 L
1360 3077 mt 1360 3060 L
1360  259 mt 1360  275 L
1569 3077 mt 1569 3060 L
1569  259 mt 1569  275 L
1732 3077 mt 1732 3060 L
1732  259 mt 1732  275 L
1864 3077 mt 1864 3060 L
1864  259 mt 1864  275 L
1976 3077 mt 1976 3060 L
1976  259 mt 1976  275 L
2073 3077 mt 2073 3060 L
2073  259 mt 2073  275 L
2159 3077 mt 2159 3060 L
2159  259 mt 2159  275 L
2236 3077 mt 2236 3060 L
2236  259 mt 2236  275 L
2236 3077 mt 2236 3043 L
2236  259 mt 2236  292 L
%%IncludeResource: font Helvetica
/Helvetica /ISOLatin1Encoding 120 FMSR

2126 3259 mt 
(10) s
%%IncludeResource: font Helvetica
/Helvetica /ISOLatin1Encoding 80 FMSR

2259 3185 mt 
(16) s
2739 3077 mt 2739 3060 L
2739  259 mt 2739  275 L
3034 3077 mt 3034 3060 L
3034  259 mt 3034  275 L
3243 3077 mt 3243 3060 L
3243  259 mt 3243  275 L
3406 3077 mt 3406 3060 L
3406  259 mt 3406  275 L
3538 3077 mt 3538 3060 L
3538  259 mt 3538  275 L
3650 3077 mt 3650 3060 L
3650  259 mt 3650  275 L
3747 3077 mt 3747 3060 L
3747  259 mt 3747  275 L
3833 3077 mt 3833 3060 L
3833  259 mt 3833  275 L
3910 3077 mt 3910 3060 L
3910  259 mt 3910  275 L
3910 3077 mt 3910 3043 L
3910  259 mt 3910  292 L
%%IncludeResource: font Helvetica
/Helvetica /ISOLatin1Encoding 120 FMSR

3800 3259 mt 
(10) s
%%IncludeResource: font Helvetica
/Helvetica /ISOLatin1Encoding 80 FMSR

3933 3185 mt 
(17) s
 562 3077 mt  578 3077 L
3910 3077 mt 3893 3077 L
 562 3077 mt  595 3077 L
3910 3077 mt 3876 3077 L
%%IncludeResource: font Helvetica
/Helvetica /ISOLatin1Encoding 120 FMSR

 303 3121 mt 
(10) s
%%IncludeResource: font Helvetica
/Helvetica /ISOLatin1Encoding 80 FMSR

 436 3047 mt 
(-2) s
 562 2652 mt  578 2652 L
3910 2652 mt 3893 2652 L
 562 2404 mt  578 2404 L
3910 2404 mt 3893 2404 L
 562 2228 mt  578 2228 L
3910 2228 mt 3893 2228 L
 562 2092 mt  578 2092 L
3910 2092 mt 3893 2092 L
 562 1980 mt  578 1980 L
3910 1980 mt 3893 1980 L
 562 1886 mt  578 1886 L
3910 1886 mt 3893 1886 L
 562 1804 mt  578 1804 L
3910 1804 mt 3893 1804 L
 562 1732 mt  578 1732 L
3910 1732 mt 3893 1732 L
 562 1668 mt  578 1668 L
3910 1668 mt 3893 1668 L
 562 1668 mt  595 1668 L
3910 1668 mt 3876 1668 L
%%IncludeResource: font Helvetica
/Helvetica /ISOLatin1Encoding 120 FMSR

 303 1712 mt 
(10) s
%%IncludeResource: font Helvetica
/Helvetica /ISOLatin1Encoding 80 FMSR

 436 1638 mt 
(-1) s
 562 1243 mt  578 1243 L
3910 1243 mt 3893 1243 L
 562  995 mt  578  995 L
3910  995 mt 3893  995 L
 562  819 mt  578  819 L
3910  819 mt 3893  819 L
 562  683 mt  578  683 L
3910  683 mt 3893  683 L
 562  571 mt  578  571 L
3910  571 mt 3893  571 L
 562  477 mt  578  477 L
3910  477 mt 3893  477 L
 562  395 mt  578  395 L
3910  395 mt 3893  395 L
 562  323 mt  578  323 L
3910  323 mt 3893  323 L
 562  259 mt  578  259 L
3910  259 mt 3893  259 L
 562  259 mt  595  259 L
3910  259 mt 3876  259 L
%%IncludeResource: font Helvetica
/Helvetica /ISOLatin1Encoding 120 FMSR

 303  303 mt 
(10) s
%%IncludeResource: font Helvetica
/Helvetica /ISOLatin1Encoding 80 FMSR

 436  229 mt 
(0) s
 562 3077 mt 3910 3077 L
 562  259 mt 3910  259 L
 562 3077 mt  562  259 L
3910 3077 mt 3910  259 L
gs 562 259 3349 2819 MR c np
2 1 1 2 2 1 2 1 1 2 2 1 2 2 1 1 
2 1 2 2 1 1 2 2 2 1 1 1 2 2 2 1 
1 1 2 2 2 1 1 2 2 1 2 1 1 2 2 1 
2 2 1 1 2 1 2 2 1 1 2 1 2 2 1 1 
2 2 2 1 1 1 2 2 2 1 2 1 1 2 2 1 
2 2 1 1 2 1 2 2 1 1 2 2 2 1 1 1 
2 2 2 1 1 1 2 2 2 1 1 2 2 1 2 1 
1 2 2 1 2 1 1 2 2 1 2 2 1 1 2 1 
2 2 1 1 2 2 2 1 1 1 2 2 2 1 1 1 
2 2 2 1 1 2 2 1 2 1 1 2 2 1 2 1 
1 2 2 1 2 2 2 1 1 1 2 2 2 1 1 1 
2 2 2 1 1 2 2 1 2 1 1 2 2 1 2 1 
1 2 2 1 2 1 3576 2804 100 MP stroke
1 2 2 1 2 2 1 1 2 1 2 2 1 1 2 1 
2 2 1 1 2 2 2 1 1 1 2 2 2 1 1 1 
2 2 2 1 1 2 2 1 2 1 1 2 2 1 2 1 
1 2 2 1 2 1 1 2 2 1 2 2 2 1 1 1 
2 2 2 1 1 1 2 2 2 1 1 1 2 2 2 1 
1 2 2 1 2 1 1 2 2 1 2 1 1 2 2 1 
2 1 1 2 2 1 2 2 1 1 2 1 2 2 1 1 
2 1 2 2 1 1 2 1 2 2 1 1 2 1 2 2 
1 1 2 2 2 1 1 1 2 2 2 1 1 1 2 2 
2 1 2 1 1 2 2 1 2 1 1 2 2 1 2 2 
1 1 2 1 2 2 1 1 2 1 2 2 1 1 2 1 
2 2 1 1 2 1 2 2 1 1 2 1 2 2 1 1 
2 1 2 2 1 1 3411 2669 100 MP stroke
2 2 2 1 1 1 2 2 2 1 1 1 2 2 2 1 
1 1 2 2 2 1 1 1 2 2 2 1 1 1 2 2 
2 1 1 1 2 2 2 1 2 1 1 2 2 1 2 1 
1 2 2 1 2 1 1 2 2 1 2 1 1 2 2 1 
2 1 1 2 2 1 2 1 1 2 2 1 2 1 1 2 
2 1 2 1 1 2 2 1 2 1 1 2 2 1 2 1 
1 2 2 1 2 1 1 2 2 1 2 1 1 2 2 1 
2 1 1 2 2 1 2 1 1 2 2 1 2 1 1 2 
2 1 2 1 2 2 1 1 2 1 2 2 1 1 2 1 
2 2 1 1 2 1 2 1 1 2 2 1 2 1 1 2 
2 1 2 1 1 2 2 1 2 1 1 2 2 1 2 1 
1 2 2 1 2 1 1 1 2 2 2 1 1 1 2 2 
2 1 1 1 2 2 3245 2537 100 MP stroke
2 1 1 1 2 2 2 1 1 1 2 1 2 2 1 1 
2 1 2 2 1 1 2 1 2 2 2 1 1 1 2 1 
2 2 1 1 2 1 2 2 1 1 2 1 2 1 1 2 
2 1 2 1 1 2 2 1 2 1 1 1 2 2 2 1 
1 1 2 2 2 1 1 1 2 1 2 2 1 1 2 1 
2 2 1 1 2 1 2 1 1 2 2 1 2 1 1 2 
2 1 2 1 1 1 2 2 2 1 1 1 2 1 2 2 
1 1 2 1 2 2 2 1 1 1 2 1 2 2 1 1 
2 1 2 1 1 2 2 1 2 1 1 1 2 2 2 1 
1 1 2 1 2 2 1 1 2 1 2 1 1 2 2 1 
2 1 1 1 2 2 2 1 1 1 2 1 2 2 1 1 
2 1 2 1 1 2 2 1 2 1 1 1 2 2 2 1 
1 1 2 1 2 2 3079 2411 100 MP stroke
1 1 2 1 2 1 1 2 2 1 2 1 2 1 1 1 
2 2 2 1 1 1 2 1 2 2 1 1 2 1 2 1 
1 1 2 2 2 1 1 1 2 1 2 1 1 2 2 1 
2 1 1 1 2 2 2 1 1 1 2 1 2 1 1 2 
2 1 2 1 1 1 2 1 2 2 1 1 2 1 2 1 
1 1 2 2 2 1 1 1 2 1 2 1 1 1 2 2 
2 1 2 1 1 1 2 1 2 2 1 1 2 1 2 1 
1 1 2 1 2 2 1 1 2 1 2 1 1 1 2 1 
2 2 1 1 2 1 2 1 1 1 2 1 2 2 1 1 
2 1 2 1 1 1 2 1 2 1 1 2 2 1 2 1 
1 1 2 1 2 1 1 1 2 2 2 1 1 1 2 1 
2 1 1 1 2 1 2 1 1 2 2 1 2 1 2 1 
1 1 2 1 2 1 2913 2295 100 MP stroke
1 1 2 1 2 2 1 1 2 1 2 1 1 1 2 1 
2 1 1 1 2 1 2 1 1 2 2 1 2 1 1 1 
2 1 2 1 1 1 2 1 2 1 1 1 2 1 2 1 
1 2 2 1 2 1 1 1 2 1 2 1 1 1 2 1 
2 1 1 1 2 1 2 1 1 1 2 1 2 1 1 1 
2 1 2 1 2 2 1 1 2 1 2 1 1 1 2 1 
2 1 1 1 2 1 2 1 1 1 2 1 2 1 1 1 
2 1 2 1 1 1 2 1 2 1 1 1 2 1 2 1 
1 1 2 1 2 1 1 1 2 1 2 1 1 1 2 1 
2 1 1 1 2 1 2 1 1 1 2 1 2 0 1 1 
2 1 2 1 1 1 2 1 2 1 1 1 2 1 2 1 
2 1 1 1 2 1 2 1 1 1 2 1 2 1 1 0 
2 1 2 1 1 1 2748 2194 100 MP stroke
2 1 2 1 1 1 2 1 2 1 1 1 2 0 2 1 
1 1 2 1 2 1 1 1 2 1 2 1 1 0 2 1 
2 1 1 1 2 1 2 1 1 1 2 0 2 1 1 1 
2 1 2 1 1 1 2 1 2 0 1 1 2 1 2 1 
1 1 2 0 2 1 2 1 1 1 2 1 2 0 1 1 
2 1 2 1 1 1 2 0 2 1 1 1 2 1 2 0 
1 1 2 1 2 1 1 0 2 1 2 1 1 1 2 0 
2 1 1 1 2 1 2 0 1 1 2 1 2 1 1 0 
2 1 2 1 1 0 2 1 2 1 1 0 2 1 2 1 
1 0 2 1 2 1 1 0 2 1 2 1 2 0 1 1 
2 1 2 0 1 1 2 1 2 0 1 1 2 0 2 1 
1 1 2 0 2 1 1 1 2 0 2 1 1 0 2 1 
2 0 1 1 2 1 2582 2119 100 MP stroke
2 0 1 1 2 0 2 1 1 0 2 1 2 0 1 1 
2 0 2 1 1 1 2 0 2 1 1 0 2 1 2 0 
1 1 2 0 2 1 1 0 2 0 2 1 1 0 2 1 
2 0 2 1 1 0 2 1 2 0 1 0 2 1 2 0 
1 1 2 0 2 1 1 0 2 0 2 1 1 0 2 0 
2 1 1 0 2 1 2 0 1 0 2 1 2 0 1 0 
2 1 2 0 1 0 2 0 2 1 1 0 2 0 2 1 
1 0 2 0 2 0 1 1 2 0 2 0 1 0 2 1 
2 0 1 0 2 0 2 1 1 0 2 0 2 0 2 0 
1 1 2 0 2 0 1 0 2 0 2 0 1 0 2 1 
2 0 1 0 2 0 2 0 1 0 2 0 2 0 1 0 
2 97 2 1 1 1 2 0 2 1 1 1 2 0 2 1 
1 1 2 0 2 1 2416 1986 100 MP stroke
1 0 2 1 2 1 1 0 2 1 2 0 1 1 2 1 
2 0 1 1 2 0 2 1 1 1 2 0 2 1 1 0 
2 1 2 0 2 1 1 1 2 0 2 1 1 0 2 1 
2 0 1 1 2 0 2 1 1 0 2 1 2 0 1 1 
2 0 2 1 1 0 2 1 2 0 1 1 2 0 2 1 
1 0 2 1 2 0 1 1 2 0 2 0 1 1 2 0 
2 1 1 0 2 1 2 0 1 0 2 1 2 0 1 1 
2 0 2 0 1 1 2 0 2 1 1 0 2 0 2 1 
2 0 1 0 2 1 2 0 1 0 2 1 2 0 1 0 
2 1 2 0 1 0 2 1 2 0 1 0 2 0 2 1 
1 0 2 0 2 1 1 0 2 0 2 0 1 1 2 0 
2 0 1 0 2 0 2 1 1 0 2 0 2 0 1 0 
2 1 2 0 1 0 2251 1945 100 MP stroke
2 0 2 0 1 1 2 0 2 0 1 0 2 0 2 0 
2 0 1 0 2 1 2 0 1 0 2 0 2 0 1 0 
2 0 2 0 1 0 2 0 2 0 1 0 2 0 2 1 
1 0 2 0 2 0 1 0 2 0 2 0 1 0 2 0 
2 0 1 -1 2 0 2 0 1 0 2 0 2 0 1 0 
2 0 2 0 1 0 2 0 2 0 1 0 2 -1 2 0 
1 0 2 0 2 0 1 0 2 0 2 -1 2 0 1 0 
2 0 2 0 1 0 2 -1 2 0 1 0 2 0 2 -1 
1 0 2 0 2 0 1 -1 2 0 2 0 1 -1 2 0 
2 0 1 0 2 -1 2 0 1 0 2 -1 2 0 1 -1 
2 0 2 0 1 -1 2 0 2 0 1 -1 2 0 2 -1 
1 0 2 -1 2 0 1 -1 2 0 2 0 1 -1 2 0 
2 -1 1 0 2 -1 2085 1960 100 MP stroke
2 -1 2 0 1 -1 2 0 2 -1 1 0 2 -1 2 0 
1 -1 2 -1 2 0 1 -1 2 -1 2 0 1 -1 2 -1 
2 0 1 -1 2 -1 2 0 1 -1 2 -1 2 0 1 -1 
2 -1 2 -1 1 0 2 -1 2 -1 1 -1 2 -1 2 0 
1 -1 2 -1 2 -1 1 -1 2 -1 2 -1 1 0 2 -1 
2 -1 1 -1 2 -1 2 -1 1 -1 2 -1 2 -1 2 -1 
1 -1 2 -1 2 -1 1 -1 2 -1 2 -1 1 -1 2 -1 
2 -1 1 -1 2 -1 2 -1 1 -2 2 -1 2 -1 1 -1 
2 -1 2 -1 1 -1 2 -2 2 -1 1 -1 2 -1 2 -2 
1 -1 2 -1 2 -1 1 -2 2 -1 2 -1 1 -2 2 -1 
2 -1 1 -2 2 -1 2 -1 1 -2 2 -1 2 -2 1 -1 
2 -2 2 -1 1 -1 2 -2 2 -1 2 -2 1 -1 2 -2 
2 -2 1 -1 2 -2 1919 2061 100 MP stroke
2 -1 1 -2 2 -1 2 -2 1 -2 2 -1 2 -2 1 -2 
2 -1 2 -2 1 -2 2 -1 2 -2 1 -2 2 -2 2 -2 
1 -1 2 -2 2 -2 1 -2 2 -2 2 -2 1 -1 2 -2 
2 -2 1 -2 2 -2 2 -2 1 -2 2 -2 2 -2 1 -2 
2 -2 2 -2 1 -2 2 -2 2 -2 1 477 2 0 2 -1 
2 0 1 -1 2 -1 2 0 1 -1 2 -1 2 0 1 -1 
2 -1 2 0 1 -1 2 -1 2 -1 1 0 2 -1 2 -1 
1 -1 2 -1 2 0 1 -1 2 -1 2 -1 1 -1 2 -1 
2 -1 1 -1 2 -1 2 -1 1 -1 2 -1 2 -1 1 -1 
2 -1 2 -1 1 -1 2 -1 2 -1 1 -1 2 -1 2 -1 
1 -2 2 -1 2 -1 2 -1 1 -1 2 -2 2 -1 1 -1 
2 -2 2 -1 1 -1 2 -2 2 -1 1 -1 2 -2 2 -1 
1 -2 2 -1 2 -2 1753 1712 100 MP stroke
1 -1 2 -2 2 -1 1 -2 2 -1 2 -2 1 -1 2 -2 
2 -2 1 -1 2 -2 2 -2 1 -1 2 -2 2 -2 1 -2 
2 -2 2 -1 1 -2 2 -2 2 -2 1 -2 2 -2 2 -2 
1 -2 2 -2 2 -2 1 -2 2 -2 2 -2 2 -2 1 -2 
2 -2 2 -2 1 -2 2 -3 2 -2 1 -2 2 -2 2 -3 
1 -2 2 -2 2 -3 1 -2 2 -3 2 -2 1 -2 2 -3 
2 -2 1 -3 2 -3 2 -2 1 -3 2 -2 2 -3 1 -3 
2 -2 2 -3 1 -3 2 -3 2 -2 1 -3 2 -3 2 -3 
1 -3 2 -3 2 -3 1 -3 2 -3 2 -3 1 -3 2 -3 
2 -3 1 -3 2 -3 2 -4 2 -3 1 -3 2 -3 2 -4 
1 -3 2 -4 2 -3 1 -3 2 -4 2 -3 1 -4 2 -3 
2 -4 1 -4 2 -3 2 -4 1 -4 2 -3 2 -4 1 -4 
2 -4 2 -4 1 -4 1588 1968 100 MP stroke
2 -4 2 -3 1 -4 2 -4 2 -5 1 -4 2 -4 2 -4 
1 -4 2 -4 2 -5 1 -4 2 -4 2 -5 1 -4 2 -4 
2 -5 1 -4 2 -5 2 -5 1 -4 2 -5 2 -4 2 -5 
1 -5 2 -5 2 -5 1 -4 2 -5 2 -5 1 -5 2 -5 
2 -5 1 -5 2 -6 2 -5 1 -5 2 -5 2 -6 1 -5 
2 -5 2 -6 1 -5 2 -6 2 -5 1 -6 2 -5 2 -6 
1 -6 2 -5 2 -6 1 -6 2 -6 2 -6 1 -6 2 -6 
2 -6 1 -6 2 -6 2 -6 1 -6 2 -7 2 -6 1 -6 
2 -7 2 -6 1 -7 2 -6 2 -7 2 -6 1 -7 2 -7 
2 -7 1 -6 2 -7 2 -7 1 -7 2 -7 2 -7 1 -7 
2 -7 2 -8 1 -7 2 -7 2 -8 1 -7 2 -7 2 -8 
1 -8 2 -7 2 -8 1 -8 2 -7 2 -8 1 -8 2 -8 
2 1535 1 2 2 1 1422 983 100 MP stroke
2 2 1 1 2 2 2 1 1 1 2 2 2 1 1 2 
2 1 2 1 1 2 2 1 2 2 1 1 2 1 2 2 
2 1 1 2 2 1 2 1 1 2 2 1 2 2 1 1 
2 1 2 2 1 1 2 2 2 1 1 2 2 1 2 1 
1 2 2 1 2 2 1 1 2 1 2 2 1 1 2 2 
2 1 1 1 2 2 2 1 1 2 2 1 2 1 1 2 
2 1 2 2 1 1 2 2 2 1 1 1 2 2 2 1 
1 2 2 1 2 1 2 2 1 1 2 2 2 1 1 1 
2 2 2 1 1 2 2 1 2 1 1 2 2 1 2 2 
1 1 2 2 2 1 1 1 2 2 2 1 1 2 2 1 
2 1 1 2 2 1 2 2 1 1 2 1 2 2 1 1 
2 2 2 1 1 1 2 2 2 1 1 2 2 1 2 2 
1 1 2 1 2 2 1256 843 100 MP stroke
1 1 2 2 2 1 1 1 2 2 2 1 2 2 1 1 
2 1 2 2 1 1 2 2 2 1 1 1 2 2 2 1 
1 2 2 1 2 2 1 1 2 1 2 2 1 1 2 2 
2 1 1 1 2 2 2 1 1 2 2 1 2 1 1 2 
2 1 2 2 1 1 2 1 2 2 1 1 2 2 2 1 
1 2 2 1 2 1 1 2 2 1 2 2 1 1 2 1 
2 2 1 1 2 2 2 1 2 1 1 2 2 1 2 2 
1 1 2 1 2 2 1 1 2 2 2 1 1 2 2 1 
2 1 1 2 2 1 2 2 1 1 2 1 2 2 1 1 
2 2 2 1 1 1 2 2 2 1 1 2 2 1 2 1 
1 2 2 1 2 2 1 1 2 2 2 1 1 1 2 2 
2 1 1 2 2 1 2 1 1 2 2 1 2 2 1 1 
2 1 2 2 2 1 1090 704 100 MP stroke
1 2 2 1 2 1 1 2 2 1 2 2 1 1 2 2 
2 1 1 1 2 2 2 1 1 2 2 1 2 1 1 2 
2 1 2 2 1 1 2 1 2 2 1 1 2 2 2 1 
1 1 2 2 2 1 1 2 2 1 2 2 1 1 2 1 
2 2 1 1 2 2 2 1 1 1 2 2 2 1 1 2 
2 1 2 1 1 2 2 1 2 2 2 1 1 1 2 2 
2 1 1 2 2 1 2 2 1 1 2 1 2 2 1 1 
2 2 2 1 1 1 2 2 2 1 1 2 2 1 2 1 
1 2 2 1 2 2 1 1 2 1 2 2 1 1 2 2 
2 1 1 2 2 1 2 1 1 2 2 1 2 2 1 1 
2 1 2 2 1 1 2 2 2 1 1 1 2 2 2 1 
2 2 1 1 2 1 2 2 1 1 2 2 2 1 1 2 
2 1 2 1 1 2 925 564 100 MP stroke
2 1 2 2 1 1 2 1 2 2 1 1 2 2 2 1 
1 1 2 2 2 1 1 2 2 1 2 1 1 2 2 1 
2 2 1 1 2 2 2 1 1 1 2 2 2 1 1 2 
2 1 2 1 1 2 2 1 2 2 1 1 2 1 2 2 
1 1 2 2 2 1 2 1 1 2 2 1 2 2 1 1 
2 2 2 1 1 1 2 2 2 1 1 2 2 1 2 1 
1 2 2 1 2 2 1 1 2 1 2 2 1 1 2 2 
2 1 1 1 2 2 2 1 1 2 2 1 2 2 1 1 
2 1 2 2 1 1 2 2 2 1 1 1 2 2 2 1 
1 2 2 1 2 1 1 2 2 1 2 2 1 1 2 1 
2 2 2 1 1 2 2 1 2 2 1 1 2 1 2 2 
1 1 2 2 2 1 1 1 2 2 2 1 1 2 2 1 
2 1 1 2 2 1 759 425 100 MP stroke
2 2 1 1 2 1 2 2 1 1 2 2 2 1 1 2 
2 1 2 1 1 2 2 1 2 2 1 1 2 1 2 2 
1 1 2 2 2 1 1 1 2 2 2 1 1 2 2 1 
2 1 1 2 2 1 2 2 2 1 1 2 2 1 2 1 
1 2 2 1 2 2 1 1 2 1 2 2 1 1 2 2 
2 1 1 1 2 2 2 1 1 2 2 1 2 1 1 2 
2 1 2 2 1 1 2 2 2 1 1 1 2 2 2 1 
1 2 2 1 2 1 1 2 2 1 2 2 1 1 2 1 
2 2 1 1 2 2 2 1 1 1 2 2 2 1 1 2 
2 1 2 2 2 1 1 1 2 2 2 1 1 2 2 1 
2 1 1 2 2 1 2 2 1 1 2 1 2 2 1 1 
2 2 2 1 1 1 2 2 2 1 1 2 2 1 2 2 
1 1 2 1 2 2 593 285 100 MP stroke
1 1 2 2 2 1 1 1 2 2 2 1 1 2 2 1 
2 1 1 2 2 1 2 2 1 1 2 1 2 2 1 1 
2 2 2 1 1 1 562 259 20 MP stroke
gr

%%IncludeResource: font Symbol
/Symbol /ISOLatin1Encoding 144 FMSR

2197 3413 mt 
(n) s
%%IncludeResource: font Helvetica
/Helvetica /ISOLatin1Encoding 144 FMSR

 216 2059 mt  -90 rotate
(Relative flux) s
90 rotate
gs 562 259 3349 2819 MR c np
0 -2818 1426 3077 2 MP stroke
0 -2818 1856 3077 2 MP stroke
0 -2818 2433 3077 2 MP stroke
gr

%%IncludeResource: font Symbol
/Symbol /ISOLatin1Encoding 144 FMSR

1426  375 mt 
(n) s
%%IncludeResource: font Helvetica
/Helvetica /ISOLatin1Encoding 108 FMSR

1501  447 mt 
(HI) s
%%IncludeResource: font Symbol
/Symbol /ISOLatin1Encoding 144 FMSR

1856  375 mt 
(n) s
%%IncludeResource: font Helvetica
/Helvetica /ISOLatin1Encoding 108 FMSR

1931  447 mt 
(HeI) s
%%IncludeResource: font Symbol
/Symbol /ISOLatin1Encoding 144 FMSR

2433  375 mt 
(n) s
%%IncludeResource: font Helvetica
/Helvetica /ISOLatin1Encoding 108 FMSR

2508  447 mt 
(HeII) s

end %%Color Dict

eplot
%%EndObject

epage
end

showpage

%%Trailer
%%EOF
